<?xml version="1.0" encoding="utf-8"?>
<!-- Generator: Adobe Illustrator 22.0.1, SVG Export Plug-In . SVG Version: 6.00 Build 0)  -->
<svg version="1.1" id="Layer_1" xmlns="http://www.w3.org/2000/svg" xmlns:xlink="http://www.w3.org/1999/xlink" x="0px" y="0px"
	 viewBox="0 0 1084 1080" style="enable-background:new 0 0 1084 1080;" xml:space="preserve">
<style type="text/css">
	.st0{display:none;}
	.st1{display:inline;}
	.st2{display:inline;fill:#393939;}
	.st3{fill:#393939;}
	.st4{display:inline;fill:#FFFFFF;}
	.st5{fill:#FFFFFF;}
	.st6{fill:#FFFFFF;stroke:#393939;stroke-width:15;stroke-miterlimit:10;}
	.st7{fill:#393939;stroke:#393939;stroke-width:15;stroke-miterlimit:10;}
	.st8{fill:#FF0000;}
	.st9{font-family:'AmericanTypewriter-Semibold';}
	.st10{font-size:206px;}
	.st11{letter-spacing:13;}
	.st12{display:inline;fill:#FF0000;}
</style>
<g id="Layer_6" class="st0">
	<rect x="-418" class="st1" width="1920" height="1080"/>
</g>
<g id="drone" class="st0">
	<path class="st2" d="M1066,368.2h-20v-49.3l141-19.7l-141-20.6v-2.2c0-12.4-10.1-22.5-22.5-22.5h-12.7c-12.4,0-22.5,10.1-22.5,22.5
		v2.1l-141.9,20.7L988.3,319v49.1h-20.9c-25,0-45.5,20.5-45.5,45.5v2.1H752.7v-6.4c0-10.8-8.8-19.6-19.6-19.6H369.5
		c-10.8,0-19.6,8.8-19.6,19.6v6.4H180.2v-2.1c0-25-20.5-45.5-45.5-45.5h-18.2v-49.5l139.2-19.5l-139.2-20.3v-2.5
		c0-12.4-10.1-22.5-22.5-22.5H81.3c-12.4,0-22.5,10.1-22.5,22.5v1.8l-143.8,21l143.8,20.1v48.9H36c-25,0-45.5,20.5-45.5,45.5v42.9
		c0,25,20.5,45.5,45.5,45.5h22.7v36c0,12.4,10.1,22.5,22.5,22.5H94c12.4,0,22.5-10.1,22.5-22.5v-35.9h18.2c25,0,45.5-20.5,45.5-45.5
		v-1.7h169.7v43.7L289.5,788c-3.5,16.7,5.8,33.4,20.7,37.3l0,0c14.9,3.9,29.8-6.5,33.3-23.2l59-282.1h131.7v40.5h-27.3
		c-16.4,0-22.7,40-22.7,40H436c-7.5,0-13.6,6.1-13.6,13.6V747c0,7.5,6.1,13.6,13.6,13.6h228.4c7.5,0,13.6-6.1,13.6-13.6V614.2
		c0-7.5-6.1-13.6-13.6-13.6h-48.2c0,0-4.1-40-22.7-40h-25V520h131.6L759,802.2c3.5,16.7,18.4,27.1,33.3,23.2l0,0
		c14.9-3.9,24.2-20.6,20.7-37.3l-60.3-288.7V455h169.2v1.7c0,25,20.5,45.5,45.5,45.5h20.9V538c0,12.4,10.1,22.5,22.5,22.5h12.7
		c12.4,0,22.5-10.1,22.5-22.5v-35.9h20c25,0,45.5-20.5,45.5-45.5v-42.9C1111.5,388.6,1091,368.2,1066,368.2z M597.4,689.9
		c0,26-21.1,47.1-47.1,47.1s-47.1-21.1-47.1-47.1s21.1-47.1,47.1-47.1C576.3,642.8,597.4,663.9,597.4,689.9z"/>
</g>
<g id="archive" class="st0">
	<g class="st1">
		<circle class="st3" cx="542.5" cy="632.1" r="35"/>
		<path class="st3" d="M747,220H571v44h46v24h-46v37h46v24h-46v37h46v24h-46v37h46v24h-46l-4.9,43.1c22.2,29.5,37.9,92.5,37.9,118.1
			c0,34-27.5,61.5-61.5,61.5S481,666.1,481,632.1c0-25.3,15.3-87.3,37.2-117.1H518l-5-44h-46v-24h46v-37h-46v-24h46v-37h-46v-24h46
			v-37h-46v-24h46v-44H337c-27.5,0-50,22.5-50,50v541c0,27.5,22.5,50,50,50h410c27.5,0,50-22.5,50-50V270
			C797,242.5,774.5,220,747,220z"/>
	</g>
</g>
<g id="zipperFULL" class="st0">
	<path class="st4" d="M617,288v-24h-46v-44h-58v44h-46v24h46v37h-46v24h46v37h-46v24h46v37h-46v24h46l5,44h0.2
		c-21.9,29.9-37.2,91.8-37.2,117.1c0,34,27.5,61.5,61.5,61.5s61.5-27.5,61.5-61.5c0-25.6-15.6-88.6-37.9-118.1l4.9-43h46v-24h-46
		v-37h46v-24h-46v-37h46v-24h-46v-37H617z M578.5,632.1c0,19.3-15.7,35-35,35s-35-15.7-35-35s15.7-35,35-35S578.5,612.8,578.5,632.1
		z"/>
</g>
<g id="zipper" class="st0">
	<path class="st2" d="M518,515h0.2c-21.9,29.9-37.2,91.8-37.2,117.1c0,34,27.5,61.5,61.5,61.5s61.5-27.5,61.5-61.5
		c0-25.6-15.6-88.6-37.9-118.1L518,515z M578.5,632.1c0,19.3-15.7,35-35,35s-35-15.7-35-35s15.7-35,35-35S578.5,612.8,578.5,632.1z"
		/>
</g>
<g id="camera" class="st0">
	<g class="st1">
		<path class="st3" d="M793,408H687c0,0-9-88-50-88H447c-36,0-50,88-50,88H291c-16.5,0-30,13.5-30,30v292c0,16.5,13.5,30,30,30h502
			c16.5,0,30-13.5,30-30V438C823,421.5,809.5,408,793,408z M334,494c-8.8,0-16-7.2-16-16s7.2-16,16-16s16,7.2,16,16
			S342.8,494,334,494z M542.5,727C474.8,727,420,672.2,420,604.5S474.8,482,542.5,482S665,536.8,665,604.5S610.2,727,542.5,727z
			 M789,473H687v-24h102V473z"/>
		<circle class="st3" cx="541.5" cy="604.5" r="85.5"/>
	</g>
</g>
<g id="folder" class="st0">
	<g class="st1">
		<path class="st3" d="M885,808H199c-22,0-40-18-40-40V394c0-22,18-40,40-40h686c22,0,40,18,40,40v374C925,790,907,808,885,808z"/>
		<path class="st3" d="M209,338v-49.7c0-9.5,8.8-17.3,19.6-17.3h216.7c10.8,0,19.6,7.8,19.6,17.3V338H209z"/>
	</g>
</g>
<g id="document" class="st0">
	<g class="st1">
		<path class="st3" d="M801,966H285c-22,0-40-18-40-40V154c0-22,18-40,40-40h516c22,0,40,18,40,40v772C841,948,823,966,801,966z"/>
		<rect x="332" y="263" class="st5" width="420" height="20.5"/>
		<rect x="332" y="341.2" class="st5" width="420" height="20.5"/>
		<rect x="332" y="419.4" class="st5" width="420" height="20.5"/>
		<rect x="332" y="497.6" class="st5" width="420" height="20.5"/>
		<rect x="332" y="575.9" class="st5" width="420" height="20.5"/>
		<rect x="332" y="654.1" class="st5" width="420" height="20.5"/>
		<rect x="332" y="732.3" class="st5" width="420" height="20.5"/>
		<rect x="332" y="810.5" class="st5" width="420" height="20.5"/>
	</g>
</g>
<g id="cloud" class="st0">
	<path class="st2" d="M956.5,593c-11.6,0-22.8,2-33.2,5.8c3.7-13.3,5.7-27.3,5.7-41.8c0-86.2-69.8-156-156-156
		c-34.3,0-66.1,11.1-91.9,29.9C640.7,349.8,556.9,294,460,294c-133.3,0-242,105.7-246.8,237.8c-15.5-6.3-32.4-9.8-50.2-9.8
		c-73.5,0-133,59.5-133,133c0,64.6,46,118.4,107,130.5l853-3.4c37.3-13.7,64-49.5,64-91.6C1054,636.7,1010.3,593,956.5,593z
		 M457,668.3V525l182,71.7L457,668.3z"/>
</g>
<g id="r-b" class="st0">
	<circle class="st2" cx="539" cy="850" r="150"/>
</g>
<g id="r-1" class="st0">
	<path class="st2" d="M542,605.3c60.4,0,115,29.6,154.6,77.5l60.2-72.9c-55-66.5-130.9-107.7-214.8-107.7S382.2,543.4,327.2,610
		l60.2,72.9C427,634.9,481.6,605.3,542,605.3z"/>
</g>
<g id="r-2" class="st0">
	<path class="st2" d="M542,410.3c104.8,0,199.8,51.5,268.5,134.6l59.2-71.7C785.9,371.7,670,308.9,542,308.9
		s-243.9,62.8-327.7,164.4l59.2,71.7C342.2,461.8,437.2,410.3,542,410.3z"/>
</g>
<g id="r-3" class="st0">
	<path class="st2" d="M166.1,414.9C262.3,298.5,395.2,226.4,542,226.4s279.7,72,375.9,188.5l59.2-71.7
		C865.8,208.4,711.9,125,542,125s-323.8,83.4-435.1,218.2L166.1,414.9z"/>
</g>
<g id="Comm" class="st0">
	<g class="st1">
		<polygon class="st3" points="682.4,820.8 505.9,820.8 505.9,255 682.4,173.9 		"/>
		<polygon class="st6" points="689.8,806.4 859.4,806.4 859.4,263.6 689.8,185.7 		"/>
		<polygon class="st7" points="786.7,812.6 362,812.6 362,549.5 786.7,511.8 		"/>
		<polygon class="st6" points="801.4,812.6 1058.5,812.6 1058.5,550.6 801.4,513 		"/>
		<polygon class="st3" points="307.6,820.8 64.6,820.8 64.6,438.6 307.6,383.8 		"/>
		<polygon class="st6" points="314.9,813.1 548.4,813.1 548.4,446.7 314.9,394.1 		"/>
		<polygon class="st3" points="974.8,815.5 891.1,814 891.1,718.2 974.8,723.3 		"/>
		<polygon class="st3" points="544.9,517.7 317.8,476.9 320.1,462.3 547,504.1 		"/>
		<polygon class="st3" points="543.5,574.8 314.6,546.9 316.1,532.5 544.9,561.8 		"/>
		<polygon class="st3" points="542.2,636.2 311.4,612.7 312.6,598.7 542,622.9 		"/>
		<polygon class="st3" points="542.6,695.3 311.4,676.4 312.3,662.3 542.1,681.9 		"/>
		<polygon class="st3" points="543.1,754.4 311.3,744.7 311.7,730.6 542.2,741.1 		"/>
		<g>
			<polygon class="st3" points="1062.3,595.7 971,585.3 971.8,574.2 1063.1,585.4 			"/>
			<polygon class="st3" points="1061,614.6 969.6,605.2 970.4,594.4 1061.7,604.8 			"/>
			<polygon class="st3" points="1060.3,633 968.3,623.9 969,613.4 1060.4,623 			"/>
		</g>
		<rect x="737.7" y="273" class="st3" width="10.6" height="245.3"/>
		<rect x="812" y="295.5" class="st3" width="8.3" height="216.1"/>
		<rect x="-62" y="805.2" class="st3" width="1222" height="72"/>
	</g>
</g>
<g id="res" class="st0">
	<polygon class="st2" points="919,571.1 919,392 622.8,161 326.7,392 327,392 327,571 35,571 -64,648.1 -64,920 327.6,920 
		327.6,920 766,920 919,920 1072,920 1072,648.1 	"/>
	<rect x="-49" y="662" class="st4" width="377" height="244"/>
	<polygon class="st4" points="1051,905.5 917,905.5 917,594 1051,659.6 	"/>
	<rect x="345" y="417" class="st4" width="555" height="489"/>
	<rect x="-3" y="750" class="st2" width="285" height="159"/>
	<rect x="577" y="750" class="st2" width="91" height="159"/>
	<rect x="418" y="511" class="st2" width="68" height="41.8"/>
	<rect x="398" y="229" class="st2" width="68" height="127.8"/>
	<rect x="492" y="511" class="st2" width="68" height="41.8"/>
	<rect x="418" y="558.2" class="st2" width="68" height="41.8"/>
	<rect x="492" y="558.2" class="st2" width="68" height="41.8"/>
	<rect x="682" y="511" class="st2" width="68" height="41.8"/>
	<rect x="756" y="511" class="st2" width="68" height="41.8"/>
	<rect x="682" y="558.2" class="st2" width="68" height="41.8"/>
	<rect x="756" y="558.2" class="st2" width="68" height="41.8"/>
</g>
<g id="box" class="st0">
	<polygon class="st2" points="717,522.9 717,716 366,716 366,365 717,365 717,384.3 776,341.2 776,306 307,306 307,775 776,775 
		776,460.3 	"/>
</g>
<g id="check" class="st0">
	<polygon class="st2" points="421,453 529,665 951,261 540,534 	"/>
</g>
<g id="desktop" class="st0">
	<path class="st2" d="M1079,129H5c-22,0-40,18-40,40v647c0,22,18,40,40,40h417.8l-12.6,89H322v32h441v-32h-89.1l-12.6-89H1079
		c22,0,40-18,40-40V169C1119,147,1101,129,1079,129z M1076,713.8H8V178h1068V713.8z"/>
</g>
<g id="tablet" class="st0">
	<g class="st1">
		<path class="st3" d="M854,158H322c-13.2,0-24,10.8-24,24v712c0,13.2,10.8,24,24,24h532c13.2,0,24-10.8,24-24V182
			C878,168.8,867.2,158,854,158z M588.5,886c-13,0-23.5-10.5-23.5-23.5s10.5-23.5,23.5-23.5s23.5,10.5,23.5,23.5
			S601.5,886,588.5,886z M829,796.4H347V226.9h482V796.4z"/>
		<path class="st3" d="M442,348h-48c-6.6,0-12-5.4-12-12v-48c0-6.6,5.4-12,12-12h48c6.6,0,12,5.4,12,12v48
			C454,342.6,448.6,348,442,348z"/>
		<path class="st3" d="M556,348h-48c-6.6,0-12-5.4-12-12v-48c0-6.6,5.4-12,12-12h48c6.6,0,12,5.4,12,12v48
			C568,342.6,562.6,348,556,348z"/>
		<path class="st3" d="M667,348h-48c-6.6,0-12-5.4-12-12v-48c0-6.6,5.4-12,12-12h48c6.6,0,12,5.4,12,12v48
			C679,342.6,673.6,348,667,348z"/>
		<path class="st3" d="M781,348h-48c-6.6,0-12-5.4-12-12v-48c0-6.6,5.4-12,12-12h48c6.6,0,12,5.4,12,12v48
			C793,342.6,787.6,348,781,348z"/>
		<path class="st3" d="M442,451h-48c-6.6,0-12-5.4-12-12v-48c0-6.6,5.4-12,12-12h48c6.6,0,12,5.4,12,12v48
			C454,445.6,448.6,451,442,451z"/>
		<path class="st3" d="M556,451h-48c-6.6,0-12-5.4-12-12v-48c0-6.6,5.4-12,12-12h48c6.6,0,12,5.4,12,12v48
			C568,445.6,562.6,451,556,451z"/>
		<path class="st3" d="M667,451h-48c-6.6,0-12-5.4-12-12v-48c0-6.6,5.4-12,12-12h48c6.6,0,12,5.4,12,12v48
			C679,445.6,673.6,451,667,451z"/>
		<path class="st3" d="M781,451h-48c-6.6,0-12-5.4-12-12v-48c0-6.6,5.4-12,12-12h48c6.6,0,12,5.4,12,12v48
			C793,445.6,787.6,451,781,451z"/>
		<path class="st3" d="M442,554h-48c-6.6,0-12-5.4-12-12v-48c0-6.6,5.4-12,12-12h48c6.6,0,12,5.4,12,12v48
			C454,548.6,448.6,554,442,554z"/>
		<path class="st3" d="M556,554h-48c-6.6,0-12-5.4-12-12v-48c0-6.6,5.4-12,12-12h48c6.6,0,12,5.4,12,12v48
			C568,548.6,562.6,554,556,554z"/>
		<path class="st3" d="M667,554h-48c-6.6,0-12-5.4-12-12v-48c0-6.6,5.4-12,12-12h48c6.6,0,12,5.4,12,12v48
			C679,548.6,673.6,554,667,554z"/>
	</g>
</g>
<g id="phone" class="st0">
	<g class="st1">
		<path class="st3" d="M496,343h-48c-6.6,0-12-5.4-12-12v-48c0-6.6,5.4-12,12-12h48c6.6,0,12,5.4,12,12v48
			C508,337.6,502.6,343,496,343z"/>
		<path class="st3" d="M602,343h-48c-6.6,0-12-5.4-12-12v-48c0-6.6,5.4-12,12-12h48c6.6,0,12,5.4,12,12v48
			C614,337.6,608.6,343,602,343z"/>
		<path class="st3" d="M710,343h-48c-6.6,0-12-5.4-12-12v-48c0-6.6,5.4-12,12-12h48c6.6,0,12,5.4,12,12v48
			C722,337.6,716.6,343,710,343z"/>
		<path class="st3" d="M496,446h-48c-6.6,0-12-5.4-12-12v-48c0-6.6,5.4-12,12-12h48c6.6,0,12,5.4,12,12v48
			C508,440.6,502.6,446,496,446z"/>
		<path class="st3" d="M602,446h-48c-6.6,0-12-5.4-12-12v-48c0-6.6,5.4-12,12-12h48c6.6,0,12,5.4,12,12v48
			C614,440.6,608.6,446,602,446z"/>
		<path class="st3" d="M710,446h-48c-6.6,0-12-5.4-12-12v-48c0-6.6,5.4-12,12-12h48c6.6,0,12,5.4,12,12v48
			C722,440.6,716.6,446,710,446z"/>
		<path class="st3" d="M496,549h-48c-6.6,0-12-5.4-12-12v-48c0-6.6,5.4-12,12-12h48c6.6,0,12,5.4,12,12v48
			C508,543.6,502.6,549,496,549z"/>
		<path class="st3" d="M602,549h-48c-6.6,0-12-5.4-12-12v-48c0-6.6,5.4-12,12-12h48c6.6,0,12,5.4,12,12v48
			C614,543.6,608.6,549,602,549z"/>
		<path class="st3" d="M761.3,152H390.7c-9.2,0-16.7,10.8-16.7,24v712c0,13.2,7.5,24,16.7,24h370.6c9.2,0,16.7-10.8,16.7-24V176
			C778,162.8,770.5,152,761.3,152z M576,873c-11.6,0-21-9.4-21-21s9.4-21,21-21s21,9.4,21,21S587.6,873,576,873z M743.9,790.4H408.1
			V220.9h335.7L743.9,790.4L743.9,790.4z"/>
	</g>
</g>
<g id="printer" class="st0">
	<path class="st2" d="M1119,390H950V280H847V158c0-13.8-11.2-25-25-25H314c-13.8,0-25,11.2-25,25v122H187v110H17c-22,0-40,18-40,40
		v302c0,22,18,40,40,40h272v188c0,13.8,11.2,25,25,25h508c13.8,0,25-11.2,25-25V772h272c22,0,40-18,40-40V430
		C1159,408,1141,390,1119,390z M269,512H31v-41h238V512z M810,952H327V654h483V952z M810,280H327V163h483V280z M928,525
		c-14.4,0-26-11.6-26-26c0-14.4,11.6-26,26-26s26,11.6,26,26C954,513.4,942.4,525,928,525z M1002.1,525c-14.4,0-26-11.6-26-26
		c0-14.4,11.6-26,26-26s26,11.6,26,26C1028.1,513.4,1016.4,525,1002.1,525z M1076,525c-14.4,0-26-11.6-26-26c0-14.4,11.6-26,26-26
		s26,11.6,26,26C1102,513.4,1090.4,525,1076,525z"/>
</g>
<g id="video" class="st0">
	<path class="st2" d="M909.3,362.4l-152.5,98.2V331c0-27.4-22.4-49.9-49.9-49.9h-533c-27.4,0-49.9,22.4-49.9,49.9v418
		c0,27.4,22.4,49.9,49.9,49.9H707c27.4,0,49.9-22.4,49.9-49.9V619.5l152.5,98.2c22.3,14.4,51.7-1.7,51.7-28.2V390.6
		C961,364,931.6,348,909.3,362.4z M358.5,639.4V440.3l205.9,99.6L358.5,639.4z"/>
</g>
<g id="stamp" class="st0">
	<g class="st1">
		<path class="st3" d="M911,489H703c0,99.4-50.6,180-113,180s-113-80.6-113-180H269c-19.8,0-36,16.2-36,36v187c0,19.8,16.2,36,36,36
			h642c19.8,0,36-16.2,36-36V525C947,505.2,930.8,489,911,489z"/>
		<path class="st3" d="M729,326c0-76.8-62.2-139-139-139s-139,62.2-139,139c0,39.6,31,65.9,43,100.6c4.7,13.6-3,29.1-3,44.4
			c0,99.4,44.3,180,99,180s99-80.6,99-180c0-15.3-7.8-30.9-3-44.4C698,391.9,729,365.6,729,326z"/>
		<path class="st3" d="M989.2,538h-11.7v194.3c0,27-17.6,49.2-39.1,49.2H241.5c-21.5,0-39.1-22.1-39.1-49.2V538h-11.7
			c-24.6,0-44.8,21-44.8,46.7v207.6c0,25.7,20.1,46.7,44.8,46.7h798.5c24.6,0,44.8-21,44.8-46.7V584.7
			C1034,559,1013.9,538,989.2,538z"/>
	</g>
</g>
<g id="liable" class="st0">
	<g class="st1">
		<path class="st5" d="M68,366v309h990V366H68z"/>
		<text transform="matrix(1 0 0 1 133.9302 587.0898)" class="st8 st9 st10 st11">LIABLE</text>
		<path class="st8" d="M68,366v309h990V366H68z M1021.4,642.9H104.6V398.1h916.8L1021.4,642.9L1021.4,642.9z"/>
	</g>
</g>
<g id="picture" class="st0">
	<g class="st1">
		<path class="st3" d="M159.1,200v681h765.7V200H159.1z M896.5,853.5h-709V228.6h709.1L896.5,853.5L896.5,853.5z"/>
		<polygon class="st3" points="868,823 217,823 217,527 385.9,607 665.2,442 868,527 		"/>
		<circle class="st3" cx="348" cy="382" r="74"/>
	</g>
</g>
<g id="contractor">
	<path class="st5" d="M508,760c2.6-17.6,3.5-32,7.1-45.8c5.5-20.9-3.1-40.4-4-60.6c-0.7-15.6,1.1-18.9,16.5-19
		c11.3-0.1,22.6,0,33.9,0c9.8,0,14.2,5.2,12.8,14.6c-2,13.8-6.4,27.6-6.4,41.3c0,15.6,3.5,31.1,5.7,46.7c0.9,6.3,2,12.5,3.6,22.7
		c3.8-6.6,6-10,7.9-13.6c25.7-47.4,51.5-94.8,76.9-142.4c3.7-6.9,6.9-9,15-6.7c34,9.7,68.4,18.4,102.5,27.9
		c27.5,7.7,50.9,21.7,68.5,44.8c13.4,17.5,16.4,38.1,19.4,58.9c6.3,42.2,12.6,84.4,19,126.6c3.7,24.6-9,39.9-33.9,39.9
		c-206.7,0.1-413.5,0.1-620.2,0c-23.4,0-37-14.2-33.8-36.7c7.1-50.2,14.3-100.4,22.9-150.4c7.3-42.9,36.9-67.2,75.6-80
		c37.4-12.4,75.9-21.1,113.9-31.7c7.9-2.2,9.7,2.9,12.4,7.9c25.5,47.1,51,94.2,76.5,141.2C501.7,749.3,504,753,508,760z"/>
	<path class="st5" d="M480.6,345.8c-5.9-40.2-11.7-80.4-17.7-120.5c-2.7-17.5-2-19.2,14.4-26.7c40.4-18.3,80.9-18.4,121.9-1.5
		c9.8,4.1,13,9.9,11.2,20.6c-6.5,38.9-12.1,78-18,117c-0.3,2.3,0,4.7,1.9,7.6c12.6-38.3,25.3-76.6,38.5-116.7c3.8,3,7,5.2,9.7,7.8
		c29.3,28.3,49.5,62.1,61.4,101.1c1.9,6.1,6.2,11.6,10.4,16.7c16.6,20.1,18.9,43.7,16.6,68.3c-0.3,3.1-3.4,7.8-6,8.5
		c-11.8,2.9-11.6,12.2-13.2,21.2c-2.4,13.6-6.8,26.4-18,35.9c-2.8,2.3-4,6.8-5.3,10.5c-10.4,31-25.8,59-49.4,82
		c-58.5,57.2-142.3,56.5-199.8-1.5c-5.7-5.7-10.9-11.9-15.8-18.2c-24.7-32.2-35.1-71-49.4-107.9c-3.3-8.6-2-18.4-13.8-22.4
		c-3.6-1.2-6.8-9.3-6.9-14.2c-0.1-21.1,2.2-41.7,15.1-59.8c3.5-5,4.6-11.9,6.2-18c9.6-35.1,23.7-67.6,51.4-92.7
		c3.8-3.5,7.9-6.6,12.9-10.8c13.5,39,26.6,76.8,39.6,114.5C479.2,346.3,479.9,346,480.6,345.8z M391.5,431.8
		c0.4,4.5,0.2,6.6,0.9,8.4c11,27.7,20.9,56,33.8,82.9c6.8,14.2,17.7,27.1,29.1,38.2c49.4,48.4,119,48.3,169,0.5
		c24.5-23.5,39.6-52.4,48.1-85.1c0.9-3.3,1.8-8.7,3.9-9.4c18.1-5.3,13.2-21.2,18.2-35.1c-13.6,0-25.2-0.2-36.7,0.2
		c-2,0.1-4.6,1.9-5.7,3.6c-5.5,8.7-13.8,9.7-23.1,9.7c-57.6-0.2-115.2-0.2-172.9,0c-10.1,0-19.3-0.3-24.9-10.7c-0.9-1.6-3.9-2.9-6-3
		C414.4,431.7,403.6,431.8,391.5,431.8z"/>
</g>
<g id="circle" class="st0">
	<path class="st12" d="M542,156c-212.1,0-384,171.9-384,384s171.9,384,384,384s384-171.9,384-384S754.1,156,542,156z M233,540
		c0-69.8,23.1-134.1,62.1-185.9l432.7,432.7c-51.7,39-116.1,62.1-185.9,62.1C371.3,849,233,710.7,233,540z M788.4,726.4L355.6,293.6
		C407.4,254.3,472,231,542,231c170.7,0,309,138.3,309,309C851,610,827.7,674.6,788.4,726.4z"/>
</g>
</svg>
