<?xml version="1.0" encoding="utf-8"?>
<!-- Generator: Adobe Illustrator 22.0.1, SVG Export Plug-In . SVG Version: 6.00 Build 0)  -->
<svg version="1.1" id="Layer_13" xmlns="http://www.w3.org/2000/svg" xmlns:xlink="http://www.w3.org/1999/xlink" x="0px" y="0px"
	 viewBox="0 0 200 200" style="enable-background:new 0 0 200 200;" xml:space="preserve">
<style type="text/css">
	.st0{fill:#393939;}
</style>
<path class="st0" d="M127.1,113.6c8.7,0,15.9-0.2,22.9,0.1c2.2,0.1,5.4,1.2,6.4,2.8c10.3,17.9,20.2,35.9,30.2,54
	c0.2,0.8,0.3,1.6,0.2,2.5H13.3c0.4-1.6,1-3.2,1.6-4.7c9.2-16.6,18.6-33.1,27.7-49.7c2.1-3.9,4.6-5.3,9-5.1c8,0.3,15.9,0.1,25.1,0.1
	C73,106.2,69.8,100.2,67,94c-5.6-12.3-9.4-25-5-38.5c5.9-18,26.5-30.5,46-27.6c21.2,3.1,37.5,18.7,36.6,38.4
	C144,78.9,138,93.9,127.1,113.6z M102.3,131c12.7-18.1,24.3-34.7,29.4-54.8c3.3-12.9-1.1-23.6-11.3-31.3s-21.5-8.6-32.7-2.2
	S70.8,59.2,72.6,72.3C75.5,94.9,89,112.1,102.3,131z"/>
<path class="st0" d="M102.5,87.4c-8.6,0-14.9-6.1-15-14.5c0-8.2,6.6-14.9,14.8-14.9c8.3-0.1,14.6,6.2,14.7,14.8
	C117.1,81.6,111.3,87.4,102.5,87.4z"/>
</svg>
