<?xml version="1.0" encoding="utf-8"?>
<!-- Generator: Adobe Illustrator 22.0.1, SVG Export Plug-In . SVG Version: 6.00 Build 0)  -->
<svg version="1.1" id="Layer_11" xmlns="http://www.w3.org/2000/svg" xmlns:xlink="http://www.w3.org/1999/xlink" x="0px" y="0px"
	 viewBox="0 0 200 200" style="enable-background:new 0 0 200 200;" xml:space="preserve">
<style type="text/css">
	.st0{fill:#FFFFFF;}
</style>
<path class="st0" d="M19.5,20V181h160.9V20H19.5z M171,171.5H29v-142h142V171.5z"/>
<circle class="st0" cx="61.4" cy="64.9" r="23"/>
<polygon class="st0" points="165,165.8 35,165.8 35,116.1 60.8,133.7 125.9,95.7 165,116.1 "/>
</svg>
