<?xml version="1.0" encoding="utf-8"?>
<!-- Generator: Adobe Illustrator 21.1.0, SVG Export Plug-In . SVG Version: 6.00 Build 0)  -->
<svg version="1.1" id="Layer_1" xmlns="http://www.w3.org/2000/svg" xmlns:xlink="http://www.w3.org/1999/xlink" x="0px" y="0px"
	 viewBox="0 0 184 184" style="enable-background:new 0 0 184 184;" xml:space="preserve">
<style type="text/css">
	.st0{fill:#9E0000;}
	.st1{opacity:0.75;fill:url(#SVGID_1_);enable-background:new    ;}
	.st2{enable-background:new    ;}
	.st3{fill:#FFFFFF;}
</style>
<title>S1</title>
<g id="Layer_7">
	<circle class="st0" cx="92" cy="92" r="92"/>
	
		<linearGradient id="SVGID_1_" gradientUnits="userSpaceOnUse" x1="92" y1="182.32" x2="92" y2="75.6" gradientTransform="matrix(1 0 0 -1 0 186)">
		<stop  offset="0" style="stop-color:#F2F2F2;stop-opacity:0.65"/>
		<stop  offset="1" style="stop-color:#F2F2F2;stop-opacity:0"/>
	</linearGradient>
	<ellipse class="st1" cx="92" cy="57" rx="67.5" ry="53.4"/>
</g>
<g class="st2">
	<path class="st3" d="M78.1,41h27.2v95.5H87.3V58.1H67.6L78.1,41z"/>
</g>
</svg>
