<?xml version="1.0" encoding="utf-8"?>
<!-- Generator: Adobe Illustrator 21.1.0, SVG Export Plug-In . SVG Version: 6.00 Build 0)  -->
<svg version="1.1" id="Layer_1" xmlns="http://www.w3.org/2000/svg" xmlns:xlink="http://www.w3.org/1999/xlink" x="0px" y="0px"
	 viewBox="0 0 184 184" style="enable-background:new 0 0 184 184;" xml:space="preserve">
<style type="text/css">
	.st0{fill:#9E0000;}
	.st1{opacity:0.75;fill:url(#SVGID_1_);enable-background:new    ;}
	.st2{enable-background:new    ;}
	.st3{fill:#FFFFFF;}
</style>
<title>S3</title>
<g id="Layer_7">
	<circle class="st0" cx="92" cy="92" r="92"/>
	
		<linearGradient id="SVGID_1_" gradientUnits="userSpaceOnUse" x1="92" y1="182.32" x2="92" y2="75.6" gradientTransform="matrix(1 0 0 -1 0 186)">
		<stop  offset="0" style="stop-color:#F2F2F2;stop-opacity:0.65"/>
		<stop  offset="1" style="stop-color:#F2F2F2;stop-opacity:0"/>
	</linearGradient>
	<ellipse class="st1" cx="92" cy="57" rx="67.5" ry="53.4"/>
</g>
<g class="st2">
	<path class="st3" d="M81.5,64.5H64.1c0.9-7.1,3.4-12.7,7.6-17c5.8-6,13.1-9,21.9-9c7.8,0,14.4,2.5,19.7,7.5c5.3,5,8,10.9,8,17.7
		c0,4.2-1.2,8.1-3.5,11.6c-2.3,3.5-5.7,6.3-10.1,8.5c5.8,1.7,10.3,4.8,13.6,9.1c3.3,4.3,4.9,9.4,4.9,15.2c0,8.6-3.2,15.8-9.5,21.8
		c-6.3,6-14.4,8.9-24.2,8.9c-9.3,0-16.8-2.8-22.7-8.4c-5.8-5.6-9-13.2-9.6-22.9h18c0.8,4.9,2.5,8.6,5.2,11c2.7,2.4,6,3.6,10.1,3.6
		c4.2,0,7.8-1.4,10.6-4.1c2.8-2.7,4.2-6.1,4.2-10c0-4.3-1.9-8-5.6-11s-9.2-4.5-16.3-4.6V76.9c4.4-0.3,7.6-1,9.8-2
		c2.1-1,3.8-2.4,5-4.2c1.2-1.8,1.8-3.7,1.8-5.7c0-2.6-0.9-4.8-2.7-6.5C98.3,56.9,95.9,56,93,56c-2.6,0-5,0.8-7.1,2.4
		C83.8,60,82.3,62,81.5,64.5z"/>
</g>
</svg>
