<?xml version="1.0" encoding="utf-8"?>
<!-- Generator: Adobe Illustrator 21.1.0, SVG Export Plug-In . SVG Version: 6.00 Build 0)  -->
<svg version="1.1" id="Layer_1" xmlns="http://www.w3.org/2000/svg" xmlns:xlink="http://www.w3.org/1999/xlink" x="0px" y="0px"
	 viewBox="0 0 184 184" style="enable-background:new 0 0 184 184;" xml:space="preserve">
<style type="text/css">
	.st0{fill:#9E0000;}
	.st1{opacity:0.75;fill:url(#SVGID_1_);enable-background:new    ;}
	.st2{enable-background:new    ;}
	.st3{fill:#FFFFFF;}
</style>
<title>S8</title>
<g id="Layer_7">
	<circle class="st0" cx="92" cy="92" r="92"/>
	
		<linearGradient id="SVGID_1_" gradientUnits="userSpaceOnUse" x1="92" y1="182.32" x2="92" y2="75.6" gradientTransform="matrix(1 0 0 -1 0 186)">
		<stop  offset="0" style="stop-color:#F2F2F2;stop-opacity:0.65"/>
		<stop  offset="1" style="stop-color:#F2F2F2;stop-opacity:0"/>
	</linearGradient>
	<ellipse class="st1" cx="92" cy="57" rx="67.5" ry="53.4"/>
</g>
<g class="st2">
	<path class="st3" d="M113.1,84.7c4.3,2.8,7.7,6.3,10,10.7c2.4,4.4,3.5,9.1,3.5,14.1c0,5.5-1.4,10.6-4.1,15.3s-6.4,8.2-11.1,10.6
		c-4.6,2.4-10.5,3.5-17.7,3.5c-7.7,0-13.8-1.1-18.4-3.4s-8.2-5.7-10.9-10.3c-2.7-4.6-4.1-9.8-4.1-15.6c0-5,1.1-9.6,3.3-13.7
		c2.2-4.1,5.5-7.8,9.8-11.1c-2.9-2.9-5-6-6.5-9.2c-1.5-3.3-2.2-6.7-2.2-10.3c0-5,1.2-9.5,3.6-13.6c2.4-4.1,5.8-7.3,10.1-9.5
		c4.3-2.3,9.3-3.4,15-3.4c5.6,0,10.5,1.1,14.7,3.4c4.2,2.3,7.6,5.5,10,9.8c2.4,4.2,3.7,8.8,3.7,13.6c0,3.4-0.6,6.6-1.9,9.5
		C118.8,77.8,116.5,81.1,113.1,84.7z M93.7,94.4c-4.4,0-8.1,1.3-11,4c-3,2.7-4.5,5.8-4.5,9.5c0,3.9,1.4,7.1,4.2,9.8
		c2.8,2.7,6.5,4,11.1,4c4.6,0,8.3-1.2,11.1-3.7c2.7-2.5,4.1-5.7,4.1-9.6c0-3.9-1.4-7.2-4.3-9.9C101.5,95.7,98,94.4,93.7,94.4z
		 M93,56.1c-3,0-5.4,1-7.4,2.9c-1.9,2-2.9,4.5-2.9,7.5c0,3.1,1,5.6,3.1,7.7c2,2.1,4.5,3.1,7.5,3.1c3.1,0,5.6-1,7.6-3
		c2-2,3-4.7,3-7.9c0-3.1-1-5.6-3-7.5S96.2,56.1,93,56.1z"/>
</g>
</svg>
