<?xml version="1.0" encoding="utf-8"?>
<!-- Generator: Adobe Illustrator 21.1.0, SVG Export Plug-In . SVG Version: 6.00 Build 0)  -->
<svg version="1.1" id="Layer_1" xmlns="http://www.w3.org/2000/svg" xmlns:xlink="http://www.w3.org/1999/xlink" x="0px" y="0px"
	 viewBox="0 0 184 184" style="enable-background:new 0 0 184 184;" xml:space="preserve">
<style type="text/css">
	.st0{fill:#9E0000;}
	.st1{opacity:0.75;fill:url(#SVGID_1_);enable-background:new    ;}
	.st2{enable-background:new    ;}
	.st3{fill:#FFFFFF;}
</style>
<title>S9</title>
<g id="Layer_7">
	<circle class="st0" cx="92" cy="92" r="92"/>
	
		<linearGradient id="SVGID_1_" gradientUnits="userSpaceOnUse" x1="92" y1="182.32" x2="92" y2="75.6" gradientTransform="matrix(1 0 0 -1 0 186)">
		<stop  offset="0" style="stop-color:#F2F2F2;stop-opacity:0.65"/>
		<stop  offset="1" style="stop-color:#F2F2F2;stop-opacity:0"/>
	</linearGradient>
	<ellipse class="st1" cx="92" cy="57" rx="67.5" ry="53.4"/>
</g>
<g class="st2">
	<path class="st3" d="M92.2,138.9l-15.5-7.7l16.7-32.5c-8.1,0-15-2.9-20.7-8.7c-5.7-5.8-8.5-13-8.5-21.6c0-8.3,2.9-15.4,8.7-21.2
		c5.8-5.8,12.8-8.7,21.1-8.7c8.6,0,15.8,3,21.5,9c5.7,6,8.6,12.9,8.6,20.7c0,2.9-0.4,5.9-1.3,8.9c-0.9,3-2.9,7.5-6.1,13.7
		L92.2,138.9z M94.4,81.5c3.4,0,6.2-1.2,8.5-3.7c2.3-2.5,3.4-5.5,3.4-9.1c0-3.7-1.2-6.8-3.6-9.3c-2.4-2.5-5.2-3.8-8.4-3.8
		c-3.4,0-6.3,1.2-8.7,3.7c-2.4,2.5-3.6,5.6-3.6,9.3c0,3.7,1.2,6.7,3.5,9.2C87.9,80.3,90.9,81.5,94.4,81.5z"/>
</g>
</svg>
